<?xml version="1.0" encoding="UTF-8"?>
<svg width="110" height="113.67" version="1.1" viewBox="0 0 103.12 106.57" xmlns="http://www.w3.org/2000/svg">
 <g transform="translate(-138.39 -109.9)">
  <g transform="matrix(1.7761 0 0 1.7761 -151.64 -85.309)">
   <path d="m192.24 115.45v54.459c10.98-10.519 24.178-23.074 27.938-34.767 4.1817-13.646-3.3022-24.92-14.922-25.229-6.615-0.15384-13.015 5.5382-13.015 5.5382z" fill="#f1552c" fill-rule="evenodd"/>
   <path d="m192.31 115.45v54.459c-10.98-10.519-24.084-23.074-27.845-34.767-4.1817-13.646 3.3022-24.92 14.922-25.229 6.615-0.15384 12.922 5.5382 12.922 5.5382z" fill="#f67537" fill-rule="evenodd"/>
   <path d="m192.07 122.8c-1.0493-1e-3 -2.09 0.38519-2.8571 1.1704l-10.94 11.194-0.0154 0.0196c-0.9655 1.1957-1.3807 2.1444-1.2346 3.0059s0.86321 1.39 1.6469 1.7224c1.427 0.60522 3.3104 0.85342 4.5222 1.3206-0.2243 0.14345-0.53826 0.31147-0.92441 0.49051-0.45692 0.21184-0.92752 0.41807-1.2996 0.70711-0.18606 0.14452-0.3746 0.31448-0.45976 0.61208-0.0852 0.29761 0.0453 0.66731 0.25154 0.8783 0.36722 0.37537 0.8802 0.59694 1.5044 0.84336 0.62416 0.24643 1.3522 0.48354 2.0731 0.71829 0.72092 0.23475 1.4344 0.46768 2.0109 0.69524s1.0232 0.48362 1.1333 0.59601c0.0534 0.0548 0.0425 0.0571 0.0419 0.0517-7.2e-4 -5e-3 4e-3 0.012-0.0273 0.0748-0.0378 0.0764-0.19246 0.23711-0.31373 0.37452l-0.10481-0.13975c-0.35784-0.47546-0.91767-0.66819-1.454-0.7092-0.53638-0.041-1.0828 0.0591-1.563 0.25853-0.48026 0.19946-0.92074 0.48874-1.1382 0.98101-0.10874 0.24614-0.13762 0.55196-0.051 0.83358 0.0866 0.28161 0.26987 0.52716 0.51635 0.74065l7.2e-4 7.2e-4c0.67072 0.57997 1.5833 0.49849 2.259 0.12716 0.19451-0.10689 0.34824-0.27327 0.51846-0.41853-1e-3 0.0452-0.0297 0.0775-0.0245 0.12437 0.0279 0.25235 0.15825 0.49657 0.34168 0.68405 0.68068 0.69578 1.6056 0.66575 2.2478 0.81891 0.3211 0.0766 0.57182 0.17679 0.75602 0.33819 0.1842 0.16138 0.33736 0.39295 0.42413 0.86572 0.11085 0.60572 0.6137 1.0297 1.1522 1.185s1.1449 0.13653 1.7846 0.0321c1.2793-0.20878 2.6896-0.78075 3.6823-1.5072l0.0356-0.0259 0.0314-0.0314c0.16325-0.16701 0.29641-0.3535 0.34168-0.59811 0.0453-0.24461-0.0456-0.51205-0.16909-0.67148-0.24707-0.31887-0.52935-0.40802-0.75742-0.51845-0.13464-0.0652-0.15575-0.0824-0.2229-0.12438 1.0613-1.0538 2.0083-1.2325 2.9549-1.4526 0.48294-0.11232 0.9756-0.23077 1.4324-0.53034 0.45679-0.29955 0.83485-0.78685 1.0663-1.4799 0.0937-0.28069 0.0551-0.59794-0.0608-0.83358-0.11588-0.23565-0.28468-0.40827-0.46605-0.55968-0.36275-0.30281-0.80289-0.52972-1.2032-0.74624-0.35281-0.19082-0.62602-0.36407-0.78607-0.4919 0.61828-0.31932 1.5386-0.65579 2.6349-1.0138 1.2036-0.3931 2.5231-0.81717 3.6474-1.352s2.1012-1.1689 2.4924-2.157c0.19559-0.49404 0.20477-1.0686 1e-3 -1.635-0.20286-0.56503-0.5972-1.1295-1.1941-1.7272l-4e-3 -4e-3 -11.323-11.573-6e-3 -6e-3c-0.79912-0.76722-1.8567-1.1563-2.906-1.1578zm12.059 21.216c-1.0585 0.0364-2.1827 0.59473-2.5035 1.7252l-0.0203 0.072v0.0748c0 0.1994 0.0962 0.36406 0.18586 0.46256 0.0897 0.0985 0.17974 0.15633 0.26971 0.20542 0.17993 0.0982 0.3714 0.15928 0.58972 0.21381 0.43666 0.10906 0.97262 0.17453 1.5183 0.19006 0.54571 0.0155 1.0914-0.016 1.5616-0.14464 0.23513-0.0643 0.45668-0.14946 0.6568-0.30954 0.20013-0.16007 0.37662-0.44374 0.37662-0.74903v-0.0901l-0.0293-0.0852c-0.38584-1.1166-1.547-1.6016-2.6056-1.5652zm-2.6566 2.4309-0.20123 0.18027c-0.38216 0.3428-0.6171 0.73928-0.6603 1.1564-0.0432 0.41712 0.1274 0.81905 0.40177 1.0844 0.54872 0.53076 1.4618 0.62059 2.2583 0.15232l0.0608-0.0356 0.0496-0.051c0.21074-0.21387 0.26246-0.48544 0.24595-0.72947-0.0165-0.24402-0.10289-0.4825-0.25084-0.70711-0.29589-0.44923-0.845-0.83352-1.6392-0.99568z" color="#000000" color-rendering="auto" dominant-baseline="auto" fill="#fff" image-rendering="auto" shape-rendering="auto" solid-color="#000000" style="font-feature-settings:normal;font-variant-alternates:normal;font-variant-caps:normal;font-variant-ligatures:normal;font-variant-numeric:normal;font-variant-position:normal;isolation:auto;mix-blend-mode:normal;shape-padding:0;text-decoration-color:#000000;text-decoration-line:none;text-decoration-style:solid;text-indent:0;text-orientation:mixed;text-transform:none;white-space:normal"/>
   <path d="m192.07 123.34c-0.91482-2e-3 -1.8191 0.33149-2.4756 1.0034l-10.922 11.175c-3.6902 4.5698 2.5106 4.0396 5.1691 5.3558 0.95362 0.97477-3.6544 1.6941-2.7008 2.6697 0.95364 0.97476 5.7665 1.878 6.7218 2.8528 0.95364 0.97477-1.9516 2.008-0.99792 2.9828 0.95364 0.97478 3.1594 0.0513 3.5724 2.3016 0.2943 1.6081 3.9734 0.69082 5.7733-0.62622 0.95363-0.97558-1.8234-0.88375-0.86975-1.8585 2.3715-2.4251 4.5793-0.88054 5.3906-3.3106 0.40081-1.2008-3.4913-1.8505-2.536-2.8253 2.7438-1.6024 12.227-2.6467 7.727-7.1466l-11.32-11.57c-0.69226-0.66462-1.6175-1.0016-2.5323-1.0034zm0.0989 1.0638c0.65314 3e-3 1.3038 0.24848 1.7725 0.72327l4.3213 4.389c0.40974 0.41867 0.40321 1.2297 0.17395 1.463l-2.1442-1.7175-0.42298 2.5415-1.7926-0.94482-2.8711 1.8127-0.95032-3.8232-1.5418 2.6678h-2.3566c-0.96093 0-1.0746-1.2198-0.20141-2.0929 1.5252-1.6463 3.2749-3.3233 4.2261-4.2956 0.47804-0.48861 1.134-0.72672 1.7871-0.72327zm-5.1892 17.075c0.29186 0.1813 4.7073 1.0772 5.7861 1.2561 0.37397 0.0789 0.10894 0.46495-0.4065 0.7251-1.1626 0.30894-6.8024-1.9812-5.3796-1.9812zm17.164 3.0725c-0.88819 0.0306-1.7636 0.48404-2.005 1.3348 0 0.55445 4.0851 0.91693 4.0851-0.13183-0.29105-0.84225-1.1919-1.2336-2.0801-1.203zm-18.898 2.4042c-1.238 0.0658-2.5652 0.96186-1.5088 1.8768 0.96745 0.83656 2.4616-0.20767 2.9095-1.3751-0.29293-0.38922-0.83803-0.5316-1.4008-0.50171zm16.381 0.0696c-1.2471 1.1187 0.14039 2.2535 1.3696 1.5308 0.27397-0.27804-8e-3 -1.2527-1.3696-1.5308z" fill="#292929" stroke-width=".43661"/>
  </g>
 </g>
</svg>
