<?xml version="1.0" encoding="UTF-8" standalone="no"?>
<svg
   xmlns:dc="http://purl.org/dc/elements/1.1/"
   xmlns:cc="http://creativecommons.org/ns#"
   xmlns:rdf="http://www.w3.org/1999/02/22-rdf-syntax-ns#"
   xmlns:svg="http://www.w3.org/2000/svg"
   xmlns="http://www.w3.org/2000/svg"
   xmlns:sodipodi="http://sodipodi.sourceforge.net/DTD/sodipodi-0.dtd"
   xmlns:inkscape="http://www.inkscape.org/namespaces/inkscape"
   version="1.1"
   width="20"
   height="60"
   id="svg2"
   sodipodi:docname="thumbs.svg"
   inkscape:version="1.0.1 (1.0.1+r74)">
  <sodipodi:namedview
     id="namedview15"
     pagecolor="#505050"
     bordercolor="#eeeeee"
     borderopacity="1"
     objecttolerance="10.0"
     gridtolerance="10.0"
     guidetolerance="10.0"
     inkscape:pageshadow="0"
     inkscape:pageopacity="0"
     inkscape:pagecheckerboard="0"
     showgrid="false"
     inkscape:snap-global="false"
     inkscape:zoom="4.3634504"
     inkscape:cx="66.08553"
     inkscape:cy="24.636467"
     inkscape:window-width="1534"
     inkscape:window-height="843"
     inkscape:window-x="66"
     inkscape:window-y="20"
     inkscape:window-maximized="1"
     inkscape:current-layer="svg2"
     inkscape:document-rotation="0" />
  <defs
     id="defs4" />
  <metadata
     id="metadata7">
    <rdf:RDF>
      <cc:Work
         rdf:about="">
        <dc:format>image/svg+xml</dc:format>
        <dc:type
           rdf:resource="http://purl.org/dc/dcmitype/StillImage" />
        <dc:title />
      </cc:Work>
    </rdf:RDF>
  </metadata>
  <path
     id="path819"
     fill="#ffffff"
     d="m 11.732945,40.01188 c 0,0 -0.797614,-0.04801 -1.075592,0.616065 -0.277979,0.664068 -0.254354,1.673121 -0.254354,1.673121 0,0 -0.8866074,1.510822 -1.8520659,2.104253 -0.9654559,0.593426 -2.5363285,1.276619 -2.5363285,1.276619 0,0 -0.3309666,0.228387 -0.4975701,0.548964 -0.1664805,0.32048 -0.9167736,2.129802 -0.9167736,2.129802 0,0 -0.5550827,1.122059 -1.4110596,1.876177 -0.8561011,0.754219 -1.2693955,0.913609 -1.7375752,1.026827 -0.46805783,0.113227 -0.63366293,0.22752 -0.63366293,0.22752 l 0.84702603,7.844381 c 0,0 1.9290155,-0.796934 2.6438395,-0.680302 0.714824,0.11663 1.8427466,0.119882 2.6939548,0.489309 0.8512095,0.369422 5.3072405,0.519594 7.6488935,-0.253093 2.341654,-0.772688 2.890118,-0.335582 3.417344,-1.411807 0.527227,-1.076231 -0.820827,-1.126026 -0.901547,-1.515979 -0.08072,-0.389953 1.377001,-0.339945 1.573358,-1.210739 0.06602,-0.292909 -0.416651,-0.982335 -1.231614,-1.471023 -0.384221,-0.230449 1.622745,0.07345 1.436825,-1.486278 -0.08675,-0.729091 -0.326442,-0.895154 -1.150891,-1.080964 -0.824325,-0.185812 1.35007,-0.454692 1.244581,-1.555703 -0.07161,-0.74863 -1.284732,-1.500143 -3.1843,-1.614172 -2.007621,-0.12036 -3.053144,-0.100425 -3.053144,-0.100425 l -2.090241,-0.120695 c 0,0 1.411157,-1.899029 1.936603,-2.585445 0.525572,-0.686307 1.192199,-2.220719 1.138603,-2.541833 -0.05249,-0.322334 -0.127058,-2.363377 -2.053203,-2.185497 z"
     stroke-miterlimit="10"
     stroke-width="6"
     stroke="#000000"
     style="font-variation-settings:normal;opacity:1;vector-effect:none;fill:#808080;fill-opacity:1;stroke:none;stroke-width:4.098;stroke-linecap:butt;stroke-linejoin:miter;stroke-miterlimit:4;stroke-dasharray:none;stroke-dashoffset:0;stroke-opacity:1;marker:none;stop-color:#000000;stop-opacity:1" />
  <path
     id="imagebot_2"
     fill="#ffffff"
     d="m 11.732945,0.01188011 c 0,0 -0.797614,-0.048009 -1.075592,0.6160645 -0.277979,0.66406839 -0.254354,1.67312159 -0.254354,1.67312159 0,0 -0.8866074,1.5108222 -1.8520659,2.1042533 -0.9654559,0.5934252 -2.5363285,1.2766184 -2.5363285,1.2766184 0,0 -0.3309666,0.2283867 -0.4975701,0.5489645 -0.1664805,0.3204799 -0.9167736,2.1298019 -0.9167736,2.1298019 0,0 -0.5550827,1.1220587 -1.4110596,1.8761767 -0.8561011,0.754219 -1.2693955,0.913609 -1.7375752,1.026827 -0.46805783,0.113227 -0.63366293,0.22752 -0.63366293,0.22752 l 0.84702603,7.844381 c 0,0 1.9290155,-0.796934 2.6438395,-0.680302 0.714824,0.11663 1.8427466,0.119882 2.6939548,0.489309 0.8512095,0.369422 5.3072405,0.519594 7.6488935,-0.253093 2.341654,-0.772688 2.890118,-0.335582 3.417344,-1.411807 0.527227,-1.076231 -0.820827,-1.126026 -0.901547,-1.515979 -0.08072,-0.389953 1.377001,-0.339945 1.573358,-1.210739 0.06602,-0.292909 -0.416651,-0.982335 -1.231614,-1.471023 -0.384221,-0.230449 1.622745,0.07345 1.436825,-1.486278 -0.08675,-0.729091 -0.326442,-0.895154 -1.150891,-1.080964 -0.824325,-0.185812 1.35007,-0.454692 1.244581,-1.555703 C 18.968123,8.4104003 17.755001,7.6588868 15.855433,7.5448577 13.847812,7.4244978 12.802289,7.4444334 12.802289,7.4444334 L 10.712048,7.323738 c 0,0 1.411157,-1.8990291 1.936603,-2.5854455 0.525572,-0.6863066 1.192199,-2.2207188 1.138603,-2.5418328 -0.05249,-0.3223334 -0.127058,-2.36337637 -2.053203,-2.18549679 z"
     stroke-miterlimit="10"
     stroke-width="6"
     stroke="#000000"
     style="font-variation-settings:normal;opacity:1;vector-effect:none;fill:#d55500;fill-opacity:1;stroke:none;stroke-width:4.098;stroke-linecap:butt;stroke-linejoin:miter;stroke-miterlimit:4;stroke-dasharray:none;stroke-dashoffset:0;stroke-opacity:1;marker:none;stop-color:#000000;stop-opacity:1" />
</svg>
